{
  "pagination": {
    "total": 26,
    "limit": 12,
    "offset": 0,
    "total_pages": 3,
    "current_page": 1,
    "next_url": "https://api.artic.edu/api/v1/agent-types?page=2"
  },
  "data": [
    {
      "id": 29,
      "api_model": "agent-types",
      "api_link": "https://api.artic.edu/api/v1/agent-types/29",
      "title": "Artist Collaborative",
      "source_updated_at": "2019-05-08T18:31:54-05:00",
      "updated_at": "2019-05-09T17:01:08-05:00",
      "timestamp": "2024-10-20T09:45:29-05:00"
    },
    {
      "id": 28,
      "api_model": "agent-types",
      "api_link": "https://api.artic.edu/api/v1/agent-types/28",
      "title": "Nonprofit",
      "source_updated_at": "2019-05-08T18:31:54-05:00",
      "updated_at": "2019-05-09T17:01:08-05:00",
      "timestamp": "2024-10-20T09:45:29-05:00"
    },
    {
      "id": 27,
      "api_model": "agent-types",
      "api_link": "https://api.artic.edu/api/v1/agent-types/27",
      "title": "Merged Record",
      "source_updated_at": "2019-05-08T18:31:54-05:00",
      "updated_at": "2019-05-09T17:01:08-05:00",
      "timestamp": "2024-10-20T09:45:29-05:00"
    },
    {
      "id": 26,
      "api_model": "agent-types",
      "api_link": "https://api.artic.edu/api/v1/agent-types/26",
      "title": "Trust",
      "source_updated_at": "2019-05-08T18:31:54-05:00",
      "updated_at": "2019-05-09T17:01:08-05:00",
      "timestamp": "2024-10-20T09:45:29-05:00"
    },
    {
      "id": 25,
      "api_model": "agent-types",
      "api_link": "https://api.artic.edu/api/v1/agent-types/25",
      "title": "Local Government",
      "source_updated_at": "2019-05-08T18:31:54-05:00",
      "updated_at": "2019-05-09T17:01:08-05:00",
      "timestamp": "2024-10-20T09:45:29-05:00"
    },
    {
      "id": 24,
      "api_model": "agent-types",
      "api_link": "https://api.artic.edu/api/v1/agent-types/24",
      "title": "State Government",
      "source_updated_at": "2019-05-08T18:31:54-05:00",
      "updated_at": "2019-05-09T17:01:08-05:00",
      "timestamp": "2024-10-20T09:45:29-05:00"
    },
    {
      "id": 23,
      "api_model": "agent-types",
      "api_link": "https://api.artic.edu/api/v1/agent-types/23",
      "title": "Federal Government",
      "source_updated_at": "2019-05-08T18:31:54-05:00",
      "updated_at": "2019-05-09T17:01:08-05:00",
      "timestamp": "2024-10-20T09:45:29-05:00"
    },
    {
      "id": 22,
      "api_model": "agent-types",
      "api_link": "https://api.artic.edu/api/v1/agent-types/22",
      "title": "Organization",
      "source_updated_at": "2019-05-08T18:31:54-05:00",
      "updated_at": "2019-05-09T17:01:08-05:00",
      "timestamp": "2024-10-20T09:45:29-05:00"
    },
    {
      "id": 21,
      "api_model": "agent-types",
      "api_link": "https://api.artic.edu/api/v1/agent-types/21",
      "title": "Family Foundation",
      "source_updated_at": "2019-05-08T18:31:54-05:00",
      "updated_at": "2019-05-09T17:01:08-05:00",
      "timestamp": "2024-10-20T09:45:29-05:00"
    },
    {
      "id": 20,
      "api_model": "agent-types",
      "api_link": "https://api.artic.edu/api/v1/agent-types/20",
      "title": "Corporate Foundation",
      "source_updated_at": "2019-05-08T18:31:54-05:00",
      "updated_at": "2019-05-09T17:01:08-05:00",
      "timestamp": "2024-10-20T09:45:29-05:00"
    },
    {
      "id": 19,
      "api_model": "agent-types",
      "api_link": "https://api.artic.edu/api/v1/agent-types/19",
      "title": "Library/Archive",
      "source_updated_at": "2019-05-08T18:31:54-05:00",
      "updated_at": "2019-05-09T17:01:08-05:00",
      "timestamp": "2024-10-20T09:45:29-05:00"
    },
    {
      "id": 18,
      "api_model": "agent-types",
      "api_link": "https://api.artic.edu/api/v1/agent-types/18",
      "title": "Foundation",
      "source_updated_at": "2019-05-08T18:31:53-05:00",
      "updated_at": "2019-05-09T17:01:08-05:00",
      "timestamp": "2024-10-20T09:45:29-05:00"
    }
  ],
  "info": {
    "license_text": "The data in this response is licensed under a Creative Commons Zero (CC0) 1.0 designation and the Terms and Conditions of artic.edu.",
    "license_links": [
      "https://creativecommons.org/publicdomain/zero/1.0/",
      "https://www.artic.edu/terms"
    ],
    "version": "1.10"
  },
  "config": {
    "iiif_url": "https://www.artic.edu/iiif/2",
    "website_url": "http://www.artic.edu"
  }
}
